Data
…
As can be seen from the figure above, the combined data has no missing values. A total of 132113 lines. In this data, if AQI is missing during the actual recording process, it will be recorded as 0, so the number of each index 0 is further counted.

MissingAQI<-AQI%>%filter(AQI==0)%>%select(cn_en)%>%add_count(cn_en,sort=TRUE)%>%unique()
MissingAQI

## # A tibble: 26 x 2
##    cn_en            n
##    <chr>        <int>
##  1 PengLai        219
##  2 WaFangDian     211
##  3 ZhaoYuan       175
##  4 FuYang2         85
##  5 KeZiLeSuZhou    33
##  6 LinAn           29
##  7 JiaoZhou        24
##  8 ZhuJi           13
##  9 TaiCang         11
## 10 KaShenDiQu      10
## # ... with 16 more rows
…
